{
  "items": [
    {
      "id": "marker_1",
      "lat": 50.99574568136265,
      "lng": 5.6941449520433665,
      "popup": {
        "content": "Hoge Kempen National Park"
      }
    },
    {
      "id": "marker_2",
      "lat": 51.188088783477276,
      "lng": 5.337089278375858,
      "popup": {
        "url": "/modules/custom/ggl_map/examples/data/popup_content_marker_2.json"
      }
    },
    {
      "id": "marker_3",
      "lat": 51.08387836189058,
      "lng": 5.296474562160372,
      "popup": {
        "content": "Vallei van de Zwarte Beek"
      }
    }
  ]
}
